{
    "xmin": 0,
    "xmax": 128,
    "ymin": 0,
    "ymax": 128,
    "numberOfXCells": 128,
    "numberOfYCells": 128,
    "particlesPerCell": 100,
    "dt": 0.01,
    "simulationTime": 10,
    "saveEachShot": 1,
    "saveParticlesEachShot": 200,
    "beta_e_parallel": 1,
    "beta_p_parallel": 1,
    "omega_pe_omega_ce": 4,
    "T_p_per_T_p_par": 1,
    "T_e_per_T_e_par": 1.681,
    "mp_me": 1836,
    "polar_angle": 0,
    "azimuthal_angle": 90,
    "iterations": 4,
    "electromagneticEps": 1e-3,
    "electrostatic": false,
    "hellinger_init": false,
    "save_particles": true
}
